{
  "repositories": {
    "sanderheilbron/vimeo.ga.js": {
      "type": "package",
      "package": {
        "name": "sanderheilbron/vimeo.ga.js",
        "version": "0.6",
        "type": "drupal-library",
        "dist": {
          "url": "https://github.com/sanderheilbron/vimeo.ga.js/archive/refs/tags/0.6.zip",
          "type": "zip"
        }
      }
    }
  },
  "require": {
    "sanderheilbron/vimeo.ga.js": "0.6"
  }
}
